[gd_scene load_steps=7 format=2]

[ext_resource path="res://src/aliens/RegularAlien.tscn" type="PackedScene" id=1]
[ext_resource path="res://src/aliens/Fighter/AlienFighter.cs" type="Script" id=2]
[ext_resource path="res://assets/aliens/RegularAlien/AlienFighter/fighter.png" type="Texture" id=3]
[ext_resource path="res://src/aliens/ufo_rotate.tres" type="Animation" id=4]
[ext_resource path="res://src/bullets/Fighter/FighterBullet.tscn" type="PackedScene" id=5]

[sub_resource type="CapsuleShape2D" id=1]
radius = 6.27241
height = 26.4213

[node name="AlienFighter" instance=ExtResource( 1 )]
script = ExtResource( 2 )
BaseHealth = 1350.0
PerchentageAccelleration = 0.16
HorizontalSpeed = 420.0
VerticalSpeed = 290.0
DefaultAnimation = ExtResource( 4 )
MinShootingDelay = 0.55
MaxShootDelay = 2.4
BulletScene = ExtResource( 5 )
ShootDelayAccelleration = 0.03
MinDescend = 35.0
MaxDescend = 70.0

[node name="CollisionShape2D" parent="." index="0"]
shape = SubResource( 1 )

[node name="Sprite" parent="." index="1"]
texture = ExtResource( 3 )

[node name="AnimationPlayer" parent="." index="2"]
playback_speed = 1.4
