[gd_resource type="Animation" load_steps=2 format=2]

[ext_resource path="res://assets/aliens/ufo_wouwou.wav" type="AudioStream" id=1]

[resource]
resource_name = "ufo_rotate"
length = 0.6
loop = true
step = 0.06
tracks/0/type = "value"
tracks/0/path = NodePath("Sprite:frame")
tracks/0/interp = 1
tracks/0/loop_wrap = true
tracks/0/imported = false
tracks/0/enabled = true
tracks/0/keys = {
"times": PoolRealArray( 0, 0.12, 0.24, 0.36 ),
"transitions": PoolRealArray( 1, 1, 1, 1 ),
"update": 1,
"values": [ 0, 1, 2, 3 ]
}
tracks/1/type = "audio"
tracks/1/path = NodePath("UfoRotateAudio")
tracks/1/interp = 1
tracks/1/loop_wrap = true
tracks/1/imported = false
tracks/1/enabled = true
tracks/1/keys = {
"clips": [ {
"end_offset": 0.0,
"start_offset": 0.02,
"stream": ExtResource( 1 )
} ],
"times": PoolRealArray( 0 )
}
